{
  "4e20cb91-9a61-36d7-830c-bc9c4f5a1aae": "Ugolek",
  "c822f45a-5101-39a4-b497-17f18ba38822": "Sareth",
  "37be98d4-0501-3a30-af10-c3ddb3335c39": "NickWhite",
  "ccf7a8d5-c46e-3eac-90ff-f06c2eaadfa4": "Nikovar",
  "83b0925f-9623-3014-ad40-08c57aa9bf10": "Luke..SkyPotter",
  "06c849e6-cafb-3a30-b7d9-eef1d7b59654": "Mealina",
  "2b3cff4c-f2da-3240-a5a3-6e9a40d488ae": "Antosik",
  "3d65d70d-3ff9-38d9-9f0d-71d54ea1b06d": "sfesta-chan",
  "ba106608-ecd1-3be7-a4d4-2335d383fbd4": "WhiskasCatFood",
  "e1391d2c-8fb8-3667-b3a1-b81dd8620e41": "MagicHorek"
}